Chapter 5 應用篇_資料讀取、匯出、合併與瀏覽 | R for NGO
…
## # A tibble: 3 × 8
##      id   sex   age height weight area  score fitness
##   <dbl> <dbl> <dbl>  <dbl>  <dbl> <chr> <dbl>   <dbl>
## 1    50     1    22    167     66 南區     99       1
## 2   104     1    22    166     66 南區     99       1
## 3    37     1    24    168     61 中區     96       0

若想根據sex(性別)和age(年齡)排序(先排序sex再排age)來查看前6筆資料值，用arrange()進行排序

R_practice_new %>%
  arrange(sex, age)

## # A tibble: 110 × 8
##       id   sex   age height weight area  score fitness
##    <dbl> <dbl> <dbl>  <dbl>  <dbl> <chr> <dbl>   <dbl>
##  1    75     1    18    167     49 中區     97       0
##  2    55     1    22    161     55 南區     97       0
##  3    50     1    22    167     66 南區     99       1
##  4   104     1    22    166     66 南區     99       1
##  5    37     1    24    168     61 中區     96       0
##  6    47     1    26    170     63 北區     93       0
##  7    94     1    27    152     47 北區     90       1
##  8    13     1    28    170     72 中區     NA       1
##  9    88     1    30    154     47 北區     89       1
## 10    57     1    31    154     49 東區     90       1
## # ℹ 100 more rows
…
